7 0 200 0 0 0
7 0 -350 0 0 0
7 0 150 0 0 0
7 0 450 0 0 0
7 0 -100 0 0 0
7 0 128 0 0 0
7 0 -358 0 0 0
7 0 245 0 0 0
7 0 167 0 0 0
7 0 -222 0 0 0

7 320 0 0 0 0
7 -200 50 0 0 0
7 -500 +200 0 0 0
7 +200 -200 0 0 0
7 -200 -200 0 0 0
7 -300 +200 0 0 0
7 234 440 0 0 0
7 -350 -150 0 0 0
7 -300 0 0 0 0
7 400 300 0 0 0



7 +100 +100 0 0 0
7 -400 +100 1 -800 800
7 -250 -100 2 -500 500
7 +300 -100 0 0 0
7 -250 -100 2 -500 500
7 0 0 2 -300 500
7 30 50 0 0 0
7 +100 +100 1 -1000 0
7 -600 +100 2 -800 300
7 -500 -100 0 0 0

7 +250 +200 1 -500 0
7 -250 -100 2 -500 500
7 0 0 0 -200 200
7 0 -300 0 -400 -200
7 0 300 2 200 400
7 0 -300 2 -400 0
7 0 300 0 0 400
7 -222 +222 1 -300 400
7 -200 -200 0 -400 400
7 +200 -200 2 -400 400



7 -250 -100 2 -500 500
7 +100 +100 1 0 1000
7 -250 -100 2 -500 500
7 +300 -300 2 -400 400
7 +400 +400 2 -600 600
7 -222 +222 1 -300 400
7 -400 -400 2 -500 500
7 +400 -400 2 -550 550
7 +500 +500 2 -600 600
7 -500 +500 1 -600 600

7 -222 +222 1 -300 400
7 +250 +200 1 -500 0
7 -250 -100 2 -500 500
7 +500 +500 2 -600 600
7 -500 +500 1 -600 600
7 -250 -100 2 -500 500
7 0 0 2 -300 500
7 -400 +100 1 -800 800
7 +100 -100 2 -200 300
7 +600 +600 1 -800 800




