7 500 -50 2 -200 200
6 -200 -300 2 -400 -200
3 150 300 1 200 400
6 200 -300 2 -400 0
1 -410 300 2 400 650
7 -200 300 1 -215 440
2 250 300 1 80 350
3 0 0 2 -250 160
1 120 -120 1 325 760
7 420 200 1 -720 200

5 600 -600 1 -780 780
6 +500 -500 2 -550 550
4 +400 -400 2 -550 550
7 -300 -300 1 -400 400
3 -222 +222 1 -300 400
6 0 300 1 -200 300
1 +200 +200 2 300 -450
6 +100 -100 1 -400 400
2 -300 +300 2 -400 400
3 +100 -100 2 -200 300



1 +100 +100 1 -400 400
6 -100 +100 2 -700 700
2 200 150 2 300 -450
3 +100 -100 1 -300 400
5 +200 +200 1 -200 300
4 0 0 2 -100 100
3 30 50 1 -400 -200
1 +100 +100 2 300 -450
1 0 -300 2 250 450
5 200 150 1 320 500

2 +100 -100 0 0 0
6 +200 +200 0 0 0
1 -280 +200 2 -200 200
3 0 -300 2 -400 -200
7 0 300 2 200 400
6 -450 330 2 -400 0
2 -420 -330 2 0 400
3 -222 +222 1 -300 400
7 500 200 1 -400 400
6 +200 -200 1 -400 400


5 +300 +300 0 0 0
3 -300 +300 1 -400 400
6 -300 -300 1 -400 400
1 +300 -300 2 -400 400
7 +400 +400 2 -600 600
3 -400 +400 1 -300 700
6 -400 -400 2 -500 500
2 +400 -400 2 -550 550
1 +500 +500 2 -600 600
5 -500 +500 1 -600 600

3 -500 -500 1 -700 500
7 +500 -500 2 -550 550
1 +600 +600 1 -800 800
4 -600 +600 1 -700 700
6 -600 -600  2 -700 700
2 +600 -600 1 -800 800
1 -300 +300 1 -400 400
6 -200 -300 1 -400 400
3 +100 -100 2 -200 300
2 +600 +600 1 -800 800


