7 0 200 0 0 0
7 0 -350 0 0 0
7 0 150 0 0 0
7 0 450 0 0 0
7 0 -100 0 0 0
7 0 128 0 0 0
7 0 -358 0 0 0
7 0 245 0 0 0
7 0 167 0 0 0
7 0 -222 0 0 0
8 0 -222 0 0 0
7 0 0 0 0 0
7 0 50 0 0 0
7 0 +200 0 0 0
7 0 -200 0 0 0
7 0 -200 0 0 0
7 0 +200 0 0 0
7 4 440 0 0 0
7 0 -150 0 0 0
7 0 0 0 0 0
7 0 300 0 0 0
7 0 +100 0 0 0
7 0 +100 2 -800 -800
7 0 -100 2 -500 500
7 0 -100 0 0 0
7 0 -100 2 -500 500
7 0 0 2 -300 -500
7 0 50 0 0 0
7 0 +100 2 900 -700
7 0 300 2 -800 -600
7 0 -100 0 0 0
7 0 +200 2 -500 -900
7 0 -400 2 -500 400
7 0 0 0 -200 200
7 0 -300 0 -400 -200
7 0 400 2 200 400
7 0 0 2 -400 -400
8 0 0 2 -400 -400
7 0 300 0 0 400
7 0 +222 2 -300 400
7 0 -200 0 -400 400
7 0 400 2 -400 -400
7 0 500 2 -500 500
7 0 +300 2 0 -1000
7 0 -500 2 -500 500
7 0 400 2 -400 400
7 0 +600 2 -600 -600
7 0 +222 2 -300 400
7 0 500 2 -500 -800
7 0 550 2 -550 -550
7 0 600 2 -600 -900
7 0 +500 2 -600 -600
7 0 +222 2 -300 400
7 0 +200 2 -500 400
7 0 500 2 -500 -700
7 0 -100 2 -600 600
7 0 -500 2 -600 600
7 0 500 2 -500 -800
7 0 500 2 -300 -900
7 0 -100 2 -800 800
7 0 300 2 -200 300
7 0 +600 2 -800 -800




